<?xml version="1.0" encoding="utf-8"?>
<!-- Generator: Adobe Illustrator 18.0.0, SVG Export Plug-In . SVG Version: 6.00 Build 0)  -->
<!DOCTYPE svg PUBLIC "-//W3C//DTD SVG 1.1//EN" "http://www.w3.org/Graphics/SVG/1.1/DTD/svg11.dtd">
<svg version="1.1" id="Слой_1" xmlns="http://www.w3.org/2000/svg" xmlns:xlink="http://www.w3.org/1999/xlink" x="0px" y="0px"
	 viewBox="0 0 166.6 21.8" enable-background="new 0 0 166.6 21.8" xml:space="preserve">
<path fill="#FFFEFC" d="M137.8,3.1c-0.3,0-0.6,0.1-0.8,0.2c-0.1,0.1-0.3,0.4-0.3,1.1c0,0.6,0,4-0.1,7.2c0,2.5,0.1,4.8,0.1,5.5
	c0,1.8,0.3,2,1.7,2.4c0.5,0.1,0.7,0.3,0.7,0.5s-0.5,0.3-0.9,0.3c-0.7,0-1.7-0.1-2.9-0.1c-0.8,0-1.9,0.1-2.8,0.1
	c-0.5,0-0.8-0.1-0.8-0.4c0-0.2,0.3-0.4,0.6-0.4c1.6-0.3,1.9-0.9,1.9-2c0.1-1.4,0.1-3.6,0.1-5c0-0.9-0.1-6.8-0.1-7.7
	c0-1,0-1.4-1.6-1.6c-0.6-0.1-0.9-0.3-0.9-0.4c0-0.2,0.3-0.4,0.6-0.4c0.2,0,0.7,0,0.9,0c1.1,0,3.2-0.2,4.6-0.2c2.5,0,4.2,0.7,5.2,1.6
	c1.3,1.3,1.6,2.9,1.6,3.8c0,2.5-1.1,3.6-1.9,4.3c-0.7,0.6-2,1.2-3.2,1.2c-0.3,0-1,0-1.5-0.2c-0.3-0.1-0.5-0.3-0.5-0.4
	c0-0.1,0.1-0.2,0.3-0.2h0.7c1.5,0,3.5-1.3,3.5-4.5C142.3,5.3,140.4,3.1,137.8,3.1"/>
<path fill="#FFFEFC" d="M149.9,2.5c0.7,0,1.8,0.1,2.7,0.1c0.8,0,2-0.1,2.7-0.1c0.4,0,0.7,0.1,0.7,0.3c0,0.2-0.2,0.3-0.7,0.4
	c-1.1,0.3-1.3,0.5-1.4,1.6c-0.1,0.9-0.1,5.1,0,5.8c0,0.1,0.1,0.3,0.2,0.3c1.7,0,2.5-0.4,3.9-2.5c0.8-1.2,1.2-1.9,2-3.2
	c1.1-1.7,2.1-2.9,3.8-2.9c0.7,0,1.4,0.3,1.4,1.1c0,0.2-0.2,1.2-0.4,1.3c-0.2,0.2-0.4,0.3-0.8,0.2c-0.4-0.1-0.8-0.4-1.3-0.4
	c-1,0-1.6,0.6-2.6,2.2c-1.1,1.8-1.8,2.8-2.5,3.6c-0.1,0.1,0,0.1,0,0.1c0.6,1.1,3,4.6,4.9,6.9c1.7,2.2,2.6,2.3,4.1,2.6
	c0.1,0,0.2,0.1,0.2,0.2c0,0.3-0.3,0.4-0.6,0.5c-0.5,0.1-1.2,0.1-1.6,0.1c-1.7,0-3.1-0.8-3.7-1.6c-1.4-1.6-2.6-3.4-4.3-5.9
	c-0.7-1.1-1.2-1.5-2.4-1.5c-0.1,0-0.2,0.2-0.2,0.3c-0.1,0.8,0,5,0.1,6c0.1,0.9,0.2,1.3,1.6,1.7c0.5,0.1,0.7,0.3,0.7,0.5
	c0,0.2-0.4,0.4-0.8,0.4c-0.6,0-2.4-0.1-3.2-0.1c-0.9,0-1.9,0.1-2.7,0.1c-0.4,0-0.7-0.2-0.7-0.4c0-0.3,0.2-0.4,0.8-0.5
	c1.3-0.3,1.8-0.6,1.9-2.4c0.1-1.6,0.1-3.3,0.1-6.3c0-4.3,0-4.9-0.1-5.9c-0.1-1-0.4-1.4-1.2-1.7c-0.6-0.2-1.1-0.2-1.1-0.6
	C149.1,2.5,149.5,2.5,149.9,2.5"/>
<path fill="#FFFEFC" d="M11,11.8c-0.5-1.4-1.9-5.6-2.2-6c-0.1-0.2-0.1-0.2-0.2,0C8.1,7.1,6.7,11,6.5,11.9c0,0.1,0,0.2,0.1,0.2
	c1.1,0,3.4,0,4.3-0.1C11,12,11,11.9,11,11.8 M10.1,2.8c0.2,0.7,0.7,2,1.2,3.4c1.4,4.1,3.5,9.5,4,10.7c0.9,2.3,1.4,2.5,2.6,2.8
	c0.4,0.1,0.7,0.3,0.7,0.5c0,0.2-0.2,0.4-0.9,0.4c-0.9,0-2.3-0.1-3.5-0.1c-0.9,0-1.3,0.1-2,0.1c-0.7,0-0.9-0.2-0.9-0.3
	c0-0.1,0.2-0.4,0.7-0.4c1.3-0.3,1.2-0.8,1.1-1.4c-0.2-1.1-0.9-3-1.6-4.7c0-0.1-0.1-0.3-0.9-0.3c-1.5,0-4,0-4.6,0.1
	c-0.1,0-0.2,0.1-0.3,0.2c-0.7,1.8-1.4,4.2-1.4,4.9c0,0.3,0.1,0.8,1.4,1.2c0.5,0.1,0.7,0.3,0.7,0.5c0,0.3-0.4,0.4-0.8,0.4
	c-0.5,0-1.2-0.1-2.2-0.1s-2.5,0.1-2.9,0.1c-0.5,0-0.6-0.1-0.6-0.3c0-0.2,0.2-0.4,0.6-0.6c1.4-0.5,1.7-0.6,2.6-2.4
	c0.6-1.4,3.8-9.8,5-12.6C8.3,4.3,8.3,4.2,8.4,4c0-0.1,0.1-0.2,0.2-0.5l0.7-1.1c0.2-0.2,0.3-0.4,0.4-0.4C9.8,2.1,9.9,2.2,10.1,2.8"/>
<path fill="#FFFEFC" d="M28.4,3.2c-0.2,0-0.9,0.1-1.2,0.2c-0.1,0-0.3,0.3-0.3,0.4c-0.1,0.4-0.2,1.7-0.2,6.2c0,0.1,0.1,0.4,0.3,0.4
	c1.2,0,3.2-0.2,3.9-0.7c0.9-0.6,1.5-1.7,1.5-2.9C32.4,4.6,30.9,3.2,28.4,3.2 M31,11.8c-0.8-0.4-1.9-0.5-2.9-0.5
	c-0.6,0-1.2,0.1-1.2,0.2c-0.1,0.1-0.1,0.2-0.2,0.8c-0.1,1,0,4.6,0.1,5.6c0,0.2,0.2,0.7,0.4,0.9c0.6,0.6,1.5,0.9,1.9,0.9
	c2.3,0,4.2-1.6,4.2-4.3C33.4,13.7,32.4,12.5,31,11.8 M32.5,10.3c-0.1,0,0,0.2,0.1,0.2c1.4,0.6,3.4,1.9,3.4,4.6c0,2-0.9,3.2-2.2,4.1
	c-1.3,0.9-3.6,1.3-5,1.3c-0.8,0-3.4-0.1-4.7-0.1c-0.6,0-1.3,0-1.8,0c-0.4,0-0.8-0.1-0.8-0.4c0-0.2,0.4-0.4,0.7-0.4
	c2-0.4,2-0.7,2.1-1.7c0.1-0.6,0.2-3.6,0.2-9.1c0-2.4-0.1-4-0.2-4.4c-0.1-0.6-0.2-0.9-1.7-1.1c-0.4-0.1-0.7-0.2-0.7-0.4
	c0-0.2,0.4-0.4,0.7-0.4h1.9c0.9,0,3.3-0.2,4.4-0.2c1.6,0,3.1,0.3,3.9,0.8c1.4,0.8,2,2.2,2,3.5C34.7,8.8,33.5,9.8,32.5,10.3"/>
<path fill="#FFFEFC" d="M41,2.5c0.7,0,1.7,0.1,2.4,0.1c1.1,0,2.4-0.1,3.1-0.1c0.6,0,0.7,0.2,0.7,0.4c0,0.2-0.2,0.4-0.8,0.5
	c-1.2,0.3-1.4,0.7-1.5,1.9c-0.1,1.6-0.1,10,0,10.4c0.1,0.2,0.1,0.3,0.2,0.2c0,0,9.4-9.4,10.2-10.4c0.1-0.1,0.2-0.3,0.2-0.5V4.5
	c0-0.3-0.1-0.8-1.3-1.1c-0.4-0.1-0.6-0.3-0.6-0.5c0-0.2,0.3-0.3,0.7-0.3c0.4,0,2.1,0.1,2.8,0.1c0.9,0,2.2-0.1,2.6-0.1
	c0.4,0,0.7,0.1,0.7,0.3c0,0.1-0.1,0.3-0.7,0.5c-1.3,0.3-1.5,0.6-1.6,1.4c-0.1,0.7-0.2,6-0.2,8.8c0,1.2,0.1,3.5,0.1,4
	c0.1,1.7,0.4,1.9,1.6,2.2c0.4,0.1,0.6,0.3,0.6,0.5c0,0.3-0.2,0.4-0.8,0.4c-0.5,0-1.9-0.1-2.7-0.1c-0.6,0-2.3,0.2-2.8,0.2
	c-0.4,0-0.7-0.1-0.7-0.4c0-0.2,0.3-0.4,0.6-0.5c1.6-0.4,1.7-0.7,1.7-2.6c0.1-2.9,0.2-9.5,0.1-10c0-0.1-0.2-0.3-0.3-0.2
	c-5.2,5.3-8.3,8.5-10.3,10.5c-0.1,0.1-0.2,0.3-0.2,0.5c0,0.1,0,0.4,0,0.6c0,0.3,0.2,0.7,1.2,1c0.5,0.1,0.8,0.4,0.8,0.5
	c0,0.3-0.4,0.4-0.8,0.4c-0.2,0-1.6-0.1-2.6-0.1c-0.7,0-1.8,0.1-2.7,0.1c-0.6,0-0.9-0.1-0.9-0.4c0-0.2,0.3-0.4,0.7-0.5
	c1.4-0.4,1.7-0.5,1.8-1.9c0.1-1,0.1-3,0.1-6.8c0-3,0-5.1-0.1-6.1c-0.1-0.9-0.3-1.1-1.3-1.4c-0.6-0.1-0.8-0.3-0.8-0.5
	C40.4,2.6,40.7,2.5,41,2.5"/>
<path fill="#FFFEFC" d="M74.7,11.8c-0.5-1.4-1.9-5.6-2.2-6c-0.1-0.2-0.1-0.2-0.2,0c-0.5,1.3-1.9,5.2-2.2,6.1c0,0.1,0,0.2,0.1,0.2
	c1.1,0,3.4,0,4.3-0.1C74.6,12,74.7,11.9,74.7,11.8 M73.8,2.8c0.2,0.7,0.7,2,1.2,3.4c1.4,4.1,3.5,9.5,4,10.7c0.9,2.3,1.4,2.5,2.6,2.8
	c0.4,0.1,0.7,0.3,0.7,0.5c0,0.2-0.2,0.4-0.9,0.4c-0.9,0-2.3-0.1-3.5-0.1c-0.9,0-1.3,0.1-2,0.1c-0.7,0-0.9-0.2-0.9-0.3
	c0-0.1,0.2-0.4,0.7-0.4c1.3-0.3,1.2-0.8,1.1-1.4c-0.2-1.1-0.9-3-1.6-4.7c0-0.1-0.1-0.3-0.9-0.3c-1.5,0-4,0-4.6,0.1
	c-0.1,0-0.2,0.1-0.3,0.2c-0.7,1.8-1.4,4.2-1.4,4.9c0,0.3,0.1,0.8,1.4,1.2c0.5,0.1,0.7,0.3,0.7,0.5c0,0.3-0.4,0.4-0.8,0.4
	c-0.5,0-1.2-0.1-2.2-0.1c-1,0-2.5,0.1-2.9,0.1c-0.5,0-0.6-0.1-0.6-0.3c0-0.2,0.2-0.4,0.6-0.6c1.4-0.5,1.7-0.6,2.6-2.4
	c0.6-1.4,3.8-9.8,5-12.6C72,4.3,72,4.2,72.1,4c0-0.1,0.1-0.2,0.2-0.5l0.7-1.1c0.2-0.2,0.3-0.4,0.4-0.4C73.5,2.1,73.6,2.2,73.8,2.8"
	/>
<path fill="#FFFEFC" d="M105.7,2.5c0.4,0,0.8,0.1,0.8,0.3c0,0.1-0.2,0.3-0.8,0.5c-1.2,0.3-1.5,0.6-1.6,1.4C104,5.5,104,6.4,104,8.2
	c0,1.2,0.1,9.5,0.1,9.9c0.1,1.1,0.4,1.2,1.6,1.6c0.4,0.1,0.6,0.3,0.6,0.5c0,0.2-0.2,0.3-0.7,0.3c-0.5,0-1.5-0.1-2.3-0.1
	c-0.6,0-2.7,0.2-3.2,0.2c-0.4,0-0.7-0.1-0.7-0.3s0.3-0.4,0.6-0.5c1.4-0.5,1.7-0.7,1.7-2.7c0-0.6,0-3.3,0-6.1c0-2.9-0.1-6.2-0.1-6.7
	c0-0.5-0.1-0.6-0.3-0.6c-4.3,0-9.2-0.1-9.8-0.1c-0.1,0-0.3,0.3-0.3,0.5C91.1,4.7,91,8,91,11.3c0,2.9,0,5.8,0,6.2
	c0,1.3,0.4,1.8,1.5,2.2c0.6,0.2,0.8,0.3,0.8,0.5c0,0.2-0.4,0.3-0.8,0.3c-0.2,0-1.9-0.1-2.9-0.1c-0.7,0-1.8,0.1-2.7,0.1
	c-0.6,0-0.9-0.1-0.9-0.3c0-0.3,0.4-0.4,0.7-0.5c1.4-0.3,1.6-0.6,1.7-1.7c0.1-1.1,0.3-4.1,0.3-8.6c0-0.8,0.1-3.4,0-4.4
	c-0.1-0.9-0.4-1.3-1.4-1.6c-0.6-0.2-0.8-0.3-0.8-0.5c0-0.2,0.3-0.3,0.8-0.3c0.8,0,1.8,0.1,2.5,0.1h13.2C104,2.6,105.3,2.5,105.7,2.5
	"/>
<path fill="#FFFEFC" d="M120.8,11.8c-0.5-1.4-1.9-5.6-2.2-6c-0.1-0.2-0.1-0.2-0.2,0c-0.5,1.3-1.9,5.2-2.2,6.1c0,0.1,0,0.2,0.1,0.2
	c1.1,0,3.4,0,4.3-0.1C120.8,12,120.9,11.9,120.8,11.8 M120,2.8c0.2,0.7,0.7,2,1.2,3.4c1.4,4.1,3.5,9.5,4,10.7
	c0.9,2.3,1.4,2.5,2.6,2.8c0.4,0.1,0.7,0.3,0.7,0.5c0,0.2-0.2,0.4-0.9,0.4c-0.9,0-2.3-0.1-3.5-0.1c-0.9,0-1.3,0.1-2,0.1
	c-0.7,0-0.9-0.2-0.9-0.3c0-0.1,0.2-0.4,0.7-0.4c1.3-0.3,1.2-0.8,1.1-1.4c-0.2-1.1-0.9-3-1.6-4.7c0-0.1-0.1-0.3-0.9-0.3
	c-1.5,0-4,0-4.5,0.1c-0.1,0-0.3,0.1-0.3,0.2c-0.7,1.8-1.4,4.2-1.4,4.9c0,0.3,0.1,0.8,1.4,1.2c0.5,0.1,0.8,0.3,0.8,0.5
	c0,0.3-0.4,0.4-0.8,0.4c-0.5,0-1.2-0.1-2.2-0.1c-1,0-2.5,0.1-2.9,0.1c-0.5,0-0.6-0.1-0.6-0.3c0-0.2,0.2-0.4,0.6-0.6
	c1.4-0.5,1.7-0.6,2.6-2.4c0.6-1.4,3.8-9.8,5-12.6c0.2-0.4,0.2-0.6,0.3-0.7c0-0.1,0.1-0.2,0.2-0.5l0.7-1.1c0.2-0.2,0.3-0.4,0.4-0.4
	C119.6,2.1,119.7,2.2,120,2.8"/>
</svg>
