<?xml version="1.0" encoding="iso-8859-1"?>
<svg version="1.1" id="ruler" xmlns="http://www.w3.org/2000/svg" xmlns:xlink="http://www.w3.org/1999/xlink" x="0px" y="0px"
	 width="280px" height="4px" viewBox="0 0 280 4">
<rect style="fill:#F7C326;" width="70" height="4"/>
<rect x="70" style="fill:#FAAAC6;" width="70" height="4"/>
<rect x="140" style="fill:#84DEF0;" width="70" height="4"/>
<rect x="210.5" style="fill:#7D27CD;" width="70" height="4"/>
</svg>
